…
## 3\. Data analysis plan

``` r
eruptions %>%
  mutate(
    start_date = glue("{start_year}{start_month}{start_day}")
    )
```

    ## # A tibble: 11,178 x 16
    ##    volcano_number volcano_name eruption_number eruption_catego… area_of_activity
    ##             <dbl> <chr>                  <dbl> <chr>            <chr>           
    ##  1         266030 Soputan                22354 Confirmed Erupt… <NA>            
    ##  2         343100 San Miguel             22355 Confirmed Erupt… <NA>            
    ##  3         233020 Fournaise, …           22343 Confirmed Erupt… <NA>            
    ##  4         345020 Rincon de l…           22346 Confirmed Erupt… <NA>            
    ##  5         353010 Fernandina             22347 Confirmed Erupt… <NA>            
    ##  6         273070 Taal                   22344 Confirmed Erupt… <NA>            
    ##  7         282050 Kuchinoerab…           22345 Confirmed Erupt… <NA>            
    ##  8         241040 Whakaari/Wh…           22338 Confirmed Erupt… 1978/90 Crater …
    ##  9         311060 Semisopochn…           22341 Confirmed Erupt… <NA>            
    ## 10         284096 Nishinoshima           22340 Confirmed Erupt… <NA>            
    ## # … with 11,168 more rows, and 11 more variables: vei <dbl>, start_year <dbl>,
    ## #   start_month <dbl>, start_day <dbl>, evidence_method_dating <chr>,
    ## #   end_year <dbl>, end_month <dbl>, end_day <dbl>, latitude <dbl>,
    ## #   longitude <dbl>, start_date <glue>
…
